

========== 
test 1
========== 
Device     Boot   Start      End Sectors Size Id Type
/dev/sdb1          2048  4196351 4194304   2G a9 NetBSD
/dev/sdb2       4196352  8390655 4194304   2G 83 Linux
/dev/sdb3       8390656 16779263 8388608   4G 83 Linux



========== 
test 2
========== 

that brings on 2gb 2gb

start 64, size 4096052 2000Mb
start 4096128, size 4096104  2000mb




